{
	"info": {
		"_postman_id": "6f063586-a432-431a-85a7-d65326e55d32",
		"name": "EMS_JAVA_SCHOOL",
		"schema": "https://schema.getpostman.com/json/collection/v2.1.0/collection.json"
	},
	"item": [
		{
			"name": "Backend",
			"item": [
				{
					"name": "course",
					"item": [
						{
							"name": "course/createCourse",
							"request": {
								"method": "POST",
								"header": [],
								"body": {
									"mode": "raw",
									"raw": "{\r\n   \"title\": \"Новый курс\",\r\n   \"description\": \"Описание\",\r\n   \"teacherId\": \"1\"\r\n}",
									"options": {
										"raw": {
											"language": "json"
										}
									}
								},
								"url": {
									"raw": "http://localhost:8081/course/createCourse",
									"protocol": "http",
									"host": [
										"localhost"
									],
									"port": "8081",
									"path": [
										"course",
										"createCourse"
									]
								}
							},
							"response": []
						},
						{
							"name": "/course/saveCourse",
							"request": {
								"method": "POST",
								"header": [],
								"body": {
									"mode": "raw",
									"raw": "{\r\n   \"id\":1,\r\n   \"title\": \"Изменённый курс\",\r\n   \"description\": \"Изменённое описание\",\r\n   \"teacherId\": \"1\"\r\n}",
									"options": {
										"raw": {
											"language": "json"
										}
									}
								},
								"url": {
									"raw": "http://localhost:8081/course/saveCourse",
									"protocol": "http",
									"host": [
										"localhost"
									],
									"port": "8081",
									"path": [
										"course",
										"saveCourse"
									]
								}
							},
							"response": []
						},
						{
							"name": "/course/getCourses",
							"request": {
								"method": "GET",
								"header": [],
								"url": {
									"raw": "http://localhost:8081/course/getCourses",
									"protocol": "http",
									"host": [
										"localhost"
									],
									"port": "8081",
									"path": [
										"course",
										"getCourses"
									]
								}
							},
							"response": []
						},
						{
							"name": "/course/getCourse",
							"request": {
								"method": "GET",
								"header": [],
								"url": {
									"raw": "http://localhost:8081/course/getCourse/1",
									"protocol": "http",
									"host": [
										"localhost"
									],
									"port": "8081",
									"path": [
										"course",
										"getCourse",
										"1"
									]
								}
							},
							"response": []
						}
					]
				},
				{
					"name": "lesson",
					"item": [
						{
							"name": "/lesson/createLesson",
							"request": {
								"method": "POST",
								"header": [],
								"body": {
									"mode": "raw",
									"raw": "{\r\n   \"courseId\": 2,\r\n   \"title\": \"Закон больших чисел\",\r\n   \"description\": \"Вводная лекция по закону больших чисел и центральной предельной теореме\",\r\n   \"homework\": \"Задачи 4.1, 4.2, 4.4, стр. 91-92\"\r\n}",
									"options": {
										"raw": {
											"language": "json"
										}
									}
								},
								"url": {
									"raw": "http://localhost:8081/lesson/createLesson",
									"protocol": "http",
									"host": [
										"localhost"
									],
									"port": "8081",
									"path": [
										"lesson",
										"createLesson"
									]
								}
							},
							"response": []
						},
						{
							"name": "/lesson/saveLesson",
							"request": {
								"method": "POST",
								"header": [],
								"body": {
									"mode": "raw",
									"raw": "{\r\n   \"courseId\": 2,\r\n   \"title\": \"Формула Бернулли\",\r\n   \"description\": \"Формула Бернулли\",\r\n   \"homework\": \"§2.1, стр. 25\"\r\n}",
									"options": {
										"raw": {
											"language": "json"
										}
									}
								},
								"url": {
									"raw": "http://localhost:8081/lesson/saveLesson",
									"protocol": "http",
									"host": [
										"localhost"
									],
									"port": "8081",
									"path": [
										"lesson",
										"saveLesson"
									]
								}
							},
							"response": []
						},
						{
							"name": "/lesson/getLessons",
							"request": {
								"method": "GET",
								"header": [],
								"url": {
									"raw": "http://localhost:8081/lesson/getLessons",
									"protocol": "http",
									"host": [
										"localhost"
									],
									"port": "8081",
									"path": [
										"lesson",
										"getLessons"
									]
								}
							},
							"response": []
						},
						{
							"name": "/lesson/getLesson",
							"request": {
								"method": "GET",
								"header": [],
								"url": {
									"raw": "http://localhost:8081/lesson/getLesson/2",
									"protocol": "http",
									"host": [
										"localhost"
									],
									"port": "8081",
									"path": [
										"lesson",
										"getLesson",
										"2"
									]
								}
							},
							"response": []
						}
					]
				},
				{
					"name": "user",
					"item": [
						{
							"name": "/user/createUser",
							"request": {
								"method": "POST",
								"header": [],
								"body": {
									"mode": "raw",
									"raw": "{\r\n    \"name\":\"Василий\",\r\n    \"surname\":\"Васильев\",\r\n    \"middleName\":\"Алибабаевич\",\r\n    \"role\":\"Teacher\"\r\n}",
									"options": {
										"raw": {
											"language": "json"
										}
									}
								},
								"url": {
									"raw": "http://localhost:8081/user/createUser",
									"protocol": "http",
									"host": [
										"localhost"
									],
									"port": "8081",
									"path": [
										"user",
										"createUser"
									]
								}
							},
							"response": []
						},
						{
							"name": "/user/updateUser",
							"request": {
								"method": "POST",
								"header": [],
								"body": {
									"mode": "raw",
									"raw": "{\r\n    \"name\":\"Новый\",\r\n    \"surname\":\"Пользователь\",\r\n    \"middleName\":\"Радиевич\",\r\n    \"role\":\"Teacher\"\r\n}",
									"options": {
										"raw": {
											"language": "json"
										}
									}
								},
								"url": {
									"raw": "http://localhost:8081/user/updateUser/1",
									"protocol": "http",
									"host": [
										"localhost"
									],
									"port": "8081",
									"path": [
										"user",
										"updateUser",
										"1"
									]
								}
							},
							"response": []
						},
						{
							"name": "/user/getUsers",
							"request": {
								"method": "GET",
								"header": [],
								"url": {
									"raw": "http://localhost:8081/user/getUsers",
									"protocol": "http",
									"host": [
										"localhost"
									],
									"port": "8081",
									"path": [
										"user",
										"getUsers"
									]
								}
							},
							"response": []
						}
					]
				},
				{
					"name": "group",
					"item": [
						{
							"name": "/group/createGroup",
							"request": {
								"method": "POST",
								"header": [],
								"body": {
									"mode": "raw",
									"raw": "{\r\n    \"courseId\": \"1\",\r\n    \"title\": \"ТУ-1\",\r\n    \"isStarted\": true\r\n}",
									"options": {
										"raw": {
											"language": "json"
										}
									}
								},
								"url": {
									"raw": "http://localhost:8081/group/createGroup",
									"protocol": "http",
									"host": [
										"localhost"
									],
									"port": "8081",
									"path": [
										"group",
										"createGroup"
									]
								}
							},
							"response": []
						},
						{
							"name": "/group/updateGroup",
							"request": {
								"method": "POST",
								"header": [],
								"body": {
									"mode": "raw",
									"raw": "{\r\n    \"courseId\": \"1\",\r\n    \"title\": \"ТУ-1\",\r\n    \"isStarted\": true\r\n}",
									"options": {
										"raw": {
											"language": "json"
										}
									}
								},
								"url": {
									"raw": "http://localhost:8081/group/createGroup",
									"protocol": "http",
									"host": [
										"localhost"
									],
									"port": "8081",
									"path": [
										"group",
										"createGroup"
									]
								}
							},
							"response": []
						},
						{
							"name": "/group/getGroups",
							"request": {
								"method": "GET",
								"header": [],
								"url": {
									"raw": "http://localhost:8081/group/getGroups",
									"protocol": "http",
									"host": [
										"localhost"
									],
									"port": "8081",
									"path": [
										"group",
										"getGroups"
									]
								}
							},
							"response": []
						},
						{
							"name": "/group/getByCourse",
							"request": {
								"method": "GET",
								"header": [],
								"url": {
									"raw": "http://localhost:8081/group/getByCourse/1",
									"protocol": "http",
									"host": [
										"localhost"
									],
									"port": "8081",
									"path": [
										"group",
										"getByCourse",
										"1"
									]
								}
							},
							"response": []
						},
						{
							"name": "/group/getGroup",
							"request": {
								"method": "GET",
								"header": [],
								"url": {
									"raw": "http://localhost:8081/group/getGroup/1",
									"protocol": "http",
									"host": [
										"localhost"
									],
									"port": "8081",
									"path": [
										"group",
										"getGroup",
										"1"
									]
								}
							},
							"response": []
						},
						{
							"name": "/group/deleteGroup",
							"request": {
								"method": "GET",
								"header": []
							},
							"response": []
						},
						{
							"name": "/groupStudent/addStudentToGroup",
							"request": {
								"method": "GET",
								"header": [],
								"url": {
									"raw": ""
								}
							},
							"response": []
						},
						{
							"name": "/groupStudent/getGroupStudents",
							"request": {
								"method": "GET",
								"header": [],
								"url": {
									"raw": ""
								}
							},
							"response": []
						},
						{
							"name": "/groupStudent/getGroupStudent",
							"request": {
								"method": "GET",
								"header": [],
								"url": {
									"raw": ""
								}
							},
							"response": []
						},
						{
							"name": "/groupStudent/getByGroup",
							"request": {
								"method": "GET",
								"header": [],
								"url": {
									"raw": ""
								}
							},
							"response": []
						},
						{
							"name": "/groupStudent/deleteStudentFromGroup",
							"request": {
								"method": "GET",
								"header": [],
								"url": {
									"raw": ""
								}
							},
							"response": []
						}
					]
				},
				{
					"name": "grade",
					"item": [
						{
							"name": "/grade/createGrade",
							"request": {
								"method": "POST",
								"header": [],
								"body": {
									"mode": "raw",
									"raw": "{\r\n    \"lessonId\": \"2\",\r\n    \"groupStudentId\": \"1\",\r\n    \"grade\": \"3\"\r\n}",
									"options": {
										"raw": {
											"language": "json"
										}
									}
								},
								"url": {
									"raw": "http://localhost:8081/grade/createGrade",
									"protocol": "http",
									"host": [
										"localhost"
									],
									"port": "8081",
									"path": [
										"grade",
										"createGrade"
									]
								}
							},
							"response": []
						},
						{
							"name": "/grade/saveGrade",
							"request": {
								"method": "POST",
								"header": [],
								"body": {
									"mode": "raw",
									"raw": "{\r\n    \"id\": \"1\",   \r\n    \"lessonId\": \"1\",\r\n    \"groupStudentId\": \"1\",\r\n    \"grade\": \"1\"\r\n}",
									"options": {
										"raw": {
											"language": "json"
										}
									}
								},
								"url": {
									"raw": "http://localhost:8081/grade/saveGrade",
									"protocol": "http",
									"host": [
										"localhost"
									],
									"port": "8081",
									"path": [
										"grade",
										"saveGrade"
									]
								}
							},
							"response": []
						},
						{
							"name": "/grade/getGrades",
							"request": {
								"method": "GET",
								"header": [],
								"url": {
									"raw": "http://localhost:8081/grade/getGrades",
									"protocol": "http",
									"host": [
										"localhost"
									],
									"port": "8081",
									"path": [
										"grade",
										"getGrades"
									]
								}
							},
							"response": []
						},
						{
							"name": "/grade/getGrade",
							"request": {
								"method": "GET",
								"header": [],
								"url": {
									"raw": "http://localhost:8081/grade/getGrade/1",
									"protocol": "http",
									"host": [
										"localhost"
									],
									"port": "8081",
									"path": [
										"grade",
										"getGrade",
										"1"
									]
								}
							},
							"response": []
						},
						{
							"name": "/grade/deleteGrade",
							"request": {
								"method": "GET",
								"header": [],
								"url": {
									"raw": "http://localhost:8081/grade/deleteGrade/1",
									"protocol": "http",
									"host": [
										"localhost"
									],
									"port": "8081",
									"path": [
										"grade",
										"deleteGrade",
										"1"
									]
								}
							},
							"response": []
						},
						{
							"name": "/grade/deleteGrades",
							"request": {
								"method": "GET",
								"header": [],
								"url": {
									"raw": "http://localhost:8081/grade/deleteGrades",
									"protocol": "http",
									"host": [
										"localhost"
									],
									"port": "8081",
									"path": [
										"grade",
										"deleteGrades"
									]
								}
							},
							"response": []
						}
					]
				}
			],
			"event": [
				{
					"listen": "prerequest",
					"script": {
						"type": "text/javascript",
						"exec": [
							""
						]
					}
				},
				{
					"listen": "test",
					"script": {
						"type": "text/javascript",
						"exec": [
							""
						]
					}
				}
			]
		}
	]
}